﻿Day	Month	HongKong	Singapore	Canada	Australia	China	Worldwide
17	03	95	20	8	0	0	167
18	03	123	23	8	0	0	219
19	03	150	31	8	0	0	264
20	03	173	34	9	0	0	306
21	03	203	39	9	0	0	350
22	03	222	44	9	0	0	386
24	03	260	65	11	0	0	456
25	03	286	69	11	0	0	487
26	03	316	74	19	0	792	1323
27	03	367	78	28	0	806	1408
28	03	425	86	29	0	806	1485
29	03	470	89	37	0	806	1550
31	03	530	91	44	0	806	1622
01	04	685	92	53	1	806	1804
02	04	708	95	58	1	1190	2223
03	04	734	98	62	1	1190	2270
04	04	761	100	69	1	1220	2353
05	04	800	101	74	1	1220	2416

